{
   "_orderId": "670149",
   "_productId": "114783",
   "quantity": "1",
   "price": 11000,
   "subTotal": 11000
}    

{
   "_orderId": "884146",
   "_productId": "235587",
   "quantity": 1,
   "price": 12300,
   "subTotal": 12300 
}  

{
   "_orderId": "255207",
   "_productId": "690048",
   "quantity": "1",
   "price": 545,
   "subTotal": 545 
}  